1	3
10	3
11	9
12	8
13	4
14	9
15	5
16	14
17	4
18	7
19	6
2	13
20	6
21	13
22	10
23	10
3	7
4	7
5	5
6	8
7	8
8	4
9	14
Total number of cars having months_old less than 24 and power greater than 300 are : 199
